p: 982451653
seed: 300
thread_num: 4 - N: 800
Chunk sizes: 1 | 2 | 4 | 8 | 16 | 32 | 64 | 128
 static:	1.327075 / 1.326553 | 1.326842 / 1.326958 | 1.332151 / 1.331814 | 1.346004 / 1.346027 | 1.370296 / 1.370788 | 1.423783 / 1.423908 | 1.523981 / 1.524244 | 1.861761 / 1.858142 | 
dynamic:	1.339173 / 1.339581 | 1.328495 / 1.328389 | 1.330580 / 1.330875 | 1.342456 / 1.342250 | 1.370383 / 1.370337 | 1.424233 / 1.424280 | 1.525234 / 1.524715 | 1.855947 / 1.854603 | 
 guided:	1.315629 / 1.315698 | 1.317866 / 1.318264 | 1.322925 / 1.322734 | 1.329250 / 1.329691 | 1.344843 / 1.344953 | 1.397558 / 1.397711 | 1.501863 / 1.501864 | 1.808809 / 1.808326 | 
thread_num: 8 - N: 800
Chunk sizes: 1 | 2 | 4 | 8 | 16 | 32 | 64 | 128
 static:	0.675845 / 0.675186 | 0.677320 / 0.677181 | 0.684144 / 0.684258 | 0.697811 / 0.697568 | 0.729062 / 0.729293 | 0.786778 / 0.786951 | 0.972692 / 0.972945 | 1.267270 / 1.267284 | 
dynamic:	0.681006 / 0.681181 | 0.675945 / 0.675802 | 0.681698 / 0.681670 | 0.696320 / 0.696929 | 0.728664 / 0.728861 | 0.787160 / 0.787047 | 0.973329 / 0.973287 | 1.267330 / 1.268228 | 
 guided:	0.668833 / 0.668700 | 0.672402 / 0.672578 | 0.676085 / 0.676489 | 0.688873 / 0.688640 | 0.722973 / 0.722654 | 0.786353 / 0.786600 | 0.968605 / 0.968466 | 1.268804 / 1.267451 | 
thread_num: 16 - N: 800
Chunk sizes: 1 | 2 | 4 | 8 | 16 | 32 | 64 | 128
 static:	0.487471 / 0.483229 | 0.453370 / 0.452482 | 0.452345 / 0.452181 | 0.465599 / 0.463245 | 0.496005 / 0.494985 | 0.585366 / 0.582087 | 0.716054 / 0.722786 | 1.350779 / 1.350051 | 
dynamic:	0.926437 / 0.928542 | 0.678382 / 0.681476 | 0.571001 / 0.569971 | 0.527849 / 0.528953 | 0.533604 / 0.533834 | 0.625747 / 0.623033 | 0.812843 / 0.810202 | 1.444890 / 1.455531 | 
 guided:	0.521211 / 0.524559 | 0.509983 / 0.516039 | 0.506835 / 0.505524 | 0.512054 / 0.512314 | 0.535755 / 0.533719 | 0.624869 / 0.622328 | 0.810061 / 0.811083 | 1.450187 / 1.455901 | 
thread_num: 32 - N: 800
Chunk sizes: 1 | 2 | 4 | 8 | 16 | 32 | 64 | 128
 static:	0.513812 / 0.516200 | 0.465232 / 0.458168 | 0.449836 / 0.445961 | 0.455752 / 0.450222 | 0.488537 / 0.487696 | 0.550084 / 0.554227 | 0.855622 / 0.846675 | 1.530390 / 1.529060 | 
dynamic:	1.139278 / 1.132253 | 0.746703 / 0.742076 | 0.618886 / 0.618864 | 0.582221 / 0.590527 | 0.643885 / 0.651444 | 0.851511 / 0.849138 | 1.202669 / 1.258460 | 1.818047 / 1.811372 | 
 guided:	0.675178 / 0.671212 | 0.643015 / 0.643281 | 0.621494 / 0.617806 | 0.612325 / 0.606860 | 0.656473 / 0.675660 | 0.840398 / 0.854185 | 1.227645 / 1.226775 | 1.736491 / 1.806085 | 

thread_num: 4 - N: 1500
Chunk sizes: 1 | 2 | 4 | 8 | 16 | 32 | 64 | 128
 static:	8.573349 / 8.574521 | 8.547834 / 8.548442 | 8.574345 / 8.574863 | 8.607984 / 8.608537 | 8.699251 / 8.699226 | 8.906900 / 8.907010 | 9.360307 / 9.343523 | 10.155324 / 10.155473 | 
dynamic:	8.604690 / 8.603208 | 8.566058 / 8.567410 | 8.572126 / 8.572209 | 8.608250 / 8.608209 | 8.699772 / 8.699693 | 8.905653 / 8.905440 | 9.347309 / 9.349922 | 10.140804 / 10.138694 | 
 guided:	8.524129 / 8.523915 | 8.528580 / 8.528678 | 8.535914 / 8.535487 | 8.583131 / 8.583108 | 8.626267 / 8.625656 | 8.745317 / 8.742818 | 9.062488 / 9.062149 | 9.864544 / 9.864951 | 
thread_num: 8 - N: 1500
Chunk sizes: 1 | 2 | 4 | 8 | 16 | 32 | 64 | 128
 static:	4.315669 / 4.315880 | 4.326653 / 4.325757 | 4.334548 / 4.333453 | 4.385686 / 4.385747 | 4.499869 / 4.498826 | 4.755057 / 4.754512 | 5.230487 / 5.223142 | 6.463291 / 6.464894 | 
dynamic:	4.369864 / 4.368473 | 4.332734 / 4.332533 | 4.336055 / 4.336807 | 4.384395 / 4.383687 | 4.497621 / 4.498074 | 4.736803 / 4.736804 | 5.199349 / 5.196181 | 6.459676 / 6.459424 | 
 guided:	4.292971 / 4.293451 | 4.299673 / 4.298922 | 4.321838 / 4.321721 | 4.358722 / 4.358506 | 4.443649 / 4.443002 | 4.665539 / 4.664889 | 5.188464 / 5.193224 | 6.413474 / 6.413865 | 
thread_num: 16 - N: 1500
Chunk sizes: 1 | 2 | 4 | 8 | 16 | 32 | 64 | 128
 static:	2.555938 / 2.565282 | 2.425032 / 2.411183 | 2.392452 / 2.390129 | 2.429551 / 2.422706 | 2.556189 / 2.557681 | 2.785593 / 2.781920 | 3.461638 / 3.465136 | 4.546421 / 4.541399 | 
dynamic:	3.778460 / 3.779565 | 3.202324 / 3.201944 | 2.855505 / 2.845217 | 2.709944 / 2.715141 | 2.741445 / 2.745814 | 2.985890 / 2.985536 | 3.716994 / 3.734794 | 5.034750 / 5.064048 | 
 guided:	2.605091 / 2.621015 | 2.594958 / 2.597667 | 2.594607 / 2.589294 | 2.615829 / 2.616800 | 2.735587 / 2.735149 | 2.999231 / 2.998221 | 3.752904 / 3.723598 | 5.030511 / 5.050855 | 
thread_num: 32 - N: 1500
Chunk sizes: 1 | 2 | 4 | 8 | 16 | 32 | 64 | 128
 static:	2.073560 / 2.064535 | 1.767291 / 1.766121 | 1.619452 / 1.637606 | 1.628291 / 1.623191 | 1.725019 / 1.726772 | 2.028950 / 2.015701 | 2.615340 / 2.602486 | 4.922275 / 4.906780 | 
dynamic:	3.607023 / 3.616986 | 2.678036 / 2.675591 | 2.318141 / 2.306812 | 2.253608 / 2.239503 | 2.483992 / 2.486510 | 3.270911 / 3.293299 | 4.162091 / 4.205101 | 6.800046 / 6.685143 | 
 guided:	2.614625 / 2.572866 | 2.532515 / 2.544507 | 2.498230 / 2.488856 | 2.457325 / 2.449036 | 2.616942 / 2.632809 | 3.239195 / 3.245640 | 4.117721 / 4.100784 | 6.666539 / 6.751612 | 

