p: 982451653
seed: 300
num threads: 8
N: 2200
i: 1
Time [s]: 13.524343
Found solution for equation system
i: 2
Time [s]: 13.521476
Found solution for equation system
i: 3
Time [s]: 13.524179
Found solution for equation system
i: 4
Time [s]: 13.523111
Found solution for equation system
i: 5
Time [s]: 13.523176
Found solution for equation system
N: 3600
i: 1
Time [s]: 59.203690
Found solution for equation system
i: 2
Time [s]: 59.210115
Found solution for equation system
i: 3
Time [s]: 59.218335
Found solution for equation system
i: 4
Time [s]: 59.219366
Found solution for equation system
i: 5
Time [s]: 59.221751
Found solution for equation system
num threads: 16
N: 2200
i: 1
Time [s]: 7.203235
Found solution for equation system
i: 2
Time [s]: 7.196681
Found solution for equation system
i: 3
Time [s]: 7.214822
Found solution for equation system
i: 4
Time [s]: 7.211386
Found solution for equation system
i: 5
Time [s]: 7.214867
Found solution for equation system
N: 3600
i: 1
Time [s]: 30.504417
Found solution for equation system
i: 2
Time [s]: 30.474610
Found solution for equation system
i: 3
Time [s]: 30.507678
Found solution for equation system
i: 4
Time [s]: 30.485604
Found solution for equation system
i: 5
Time [s]: 30.504365
Found solution for equation system
num threads: 32
N: 2200
i: 1
Time [s]: 5.350933
Found solution for equation system
i: 2
Time [s]: 5.353120
Found solution for equation system
i: 3
Time [s]: 5.418778
Found solution for equation system
i: 4
Time [s]: 5.331755
Found solution for equation system
i: 5
Time [s]: 5.301609
Found solution for equation system
N: 3600
i: 1
Time [s]: 20.812726
Found solution for equation system
i: 2
Time [s]: 20.685157
Found solution for equation system
i: 3
Time [s]: 20.752542
Found solution for equation system
i: 4
Time [s]: 20.652409
Found solution for equation system
i: 5
Time [s]: 20.720697
Found solution for equation system
